[gd_resource type="Theme" load_steps=7 format=3 uid="uid://cx75g5rw65pqb"]

[ext_resource type="StyleBox" uid="uid://fjpi1xmem0bf" path="res://Assets/Styles/btn_1_hover.tres" id="1_uhq18"]
[ext_resource type="StyleBox" uid="uid://crlp1tkrihetr" path="res://Assets/Styles/btn_1.tres" id="2_5ii7j"]
[ext_resource type="StyleBox" uid="uid://cl3ifve6wc4lw" path="res://Assets/Styles/btn_1_press.tres" id="3_dexst"]
[ext_resource type="FontFile" uid="uid://cs5y8t4w5gypq" path="res://Assets/Fonts/Catfiles.ttf" id="4_1qafe"]
[ext_resource type="Texture2D" uid="uid://k1pgooq7uxeq" path="res://Assets/Images/Controls/text_input.png" id="5_o2uvc"]

[sub_resource type="StyleBoxTexture" id="StyleBoxTexture_0i4je"]
content_margin_left = 20.0
content_margin_top = 10.0
content_margin_right = 20.0
content_margin_bottom = 10.0
texture = ExtResource("5_o2uvc")
texture_margin_left = 13.0
texture_margin_top = 13.0
texture_margin_right = 13.0
texture_margin_bottom = 13.0

[resource]
default_font = ExtResource("4_1qafe")
Button/colors/font_outline_color = Color(0.101961, 0.580392, 0.729412, 1)
Button/constants/outline_size = 4
Button/styles/hover = ExtResource("1_uhq18")
Button/styles/normal = ExtResource("2_5ii7j")
Button/styles/pressed = ExtResource("3_dexst")
Label/colors/font_outline_color = Color(0.101961, 0.580392, 0.729412, 1)
Label/constants/outline_size = 12
Label/font_sizes/font_size = 26
Label/fonts/font = ExtResource("4_1qafe")
TextEdit/styles/normal = SubResource("StyleBoxTexture_0i4je")
