[gd_scene load_steps=3 format=3 uid="uid://b5xo8ttkvoafg"]

[ext_resource type="PackedScene" uid="uid://51ufxci0huaa" path="res://Nodes/lobby_player.tscn" id="1_jukbe"]
[ext_resource type="PackedScene" uid="uid://qnj0bnrktxst" path="res://Nodes/calendar_column.tscn" id="2_wqph3"]

[node name="Control" type="VBoxContainer"]
offset_right = 246.0
offset_bottom = 112.0
size_flags_horizontal = 3
size_flags_vertical = 3

[node name="Player_label" parent="." instance=ExtResource("1_jukbe")]
layout_mode = 2

[node name="calendar_column_control" parent="." instance=ExtResource("2_wqph3")]
layout_mode = 2
